EESchema Schematic File Version 4
EELAYER 26 0
EELAYER END
$Descr A4 11693 8268
encoding utf-8
Sheet 1 1
Title ""
Date ""
Rev ""
Comp ""
Comment1 ""
Comment2 ""
Comment3 ""
Comment4 ""
$EndDescr
$Comp
L mitchk_R2D2:AO4606 U?
U 1 1 5CBD7459
P 4000 2500
F 0 "U?" H 4107 2571 50  0000 L CNN
F 1 "AO4606" H 4107 2480 50  0000 L CNN
F 2 "" H 4000 3900 50  0001 C CNN
F 3 "" H 4000 3900 50  0001 C CNN
	1    4000 2500
	1    0    0    -1  
$EndComp
$Comp
L mitchk_R2D2:AO4606 U?
U 1 1 5CBD74C6
P 5550 2500
F 0 "U?" H 5658 2571 50  0000 L CNN
F 1 "AO4606" H 5658 2480 50  0000 L CNN
F 2 "" H 5550 3900 50  0001 C CNN
F 3 "" H 5550 3900 50  0001 C CNN
	1    5550 2500
	-1   0    0    -1  
$EndComp
$Comp
L Connector_Generic:Conn_01x02 J?
U 1 1 5CBD7619
P 4850 2700
F 0 "J?" V 4723 2780 50  0000 L CNN
F 1 "Conn_01x02" V 4814 2780 50  0000 L CNN
F 2 "" H 4850 2700 50  0001 C CNN
F 3 "~" H 4850 2700 50  0001 C CNN
	1    4850 2700
	0    1    1    0   
$EndComp
Wire Wire Line
	4750 2500 4050 2500
Wire Wire Line
	3950 2500 3950 2300
Wire Wire Line
	4050 2300 4050 2500
Connection ~ 4050 2500
Wire Wire Line
	4050 2500 3950 2500
Wire Wire Line
	4050 2500 4050 2650
Wire Wire Line
	3950 2650 3950 2500
Connection ~ 3950 2500
Wire Wire Line
	4850 2500 5500 2500
Wire Wire Line
	5500 2500 5500 2300
Wire Wire Line
	5500 2500 5600 2500
Wire Wire Line
	5600 2500 5600 2300
Connection ~ 5500 2500
Wire Wire Line
	5600 2500 5600 2650
Connection ~ 5600 2500
Wire Wire Line
	5500 2650 5500 2500
Text Label 4600 1550 2    50   ~ 0
MOTOR_POS
Wire Wire Line
	4600 1550 4600 1700
Wire Wire Line
	4600 1700 3950 1700
Wire Wire Line
	3950 1700 3950 1900
Wire Wire Line
	4600 1700 5600 1700
Wire Wire Line
	5600 1700 5600 1900
Connection ~ 4600 1700
Wire Wire Line
	3950 3150 3950 3050
Wire Wire Line
	5600 3150 5600 3050
$Comp
L Transistor_BJT:2N3904 Q?
U 1 1 5CBDA17B
P 2800 2400
F 0 "Q?" H 2991 2446 50  0000 L CNN
F 1 "2N3904" H 2991 2355 50  0000 L CNN
F 2 "Package_TO_SOT_THT:TO-92_Inline" H 3000 2325 50  0001 L CIN
F 3 "https://www.fairchildsemi.com/datasheets/2N/2N3904.pdf" H 2800 2400 50  0001 L CNN
	1    2800 2400
	1    0    0    -1  
$EndComp
$Comp
L Device:R R?
U 1 1 5CBDA833
P 3400 1900
F 0 "R?" H 3470 1946 50  0000 L CNN
F 1 "10K" H 3470 1855 50  0000 L CNN
F 2 "" V 3330 1900 50  0001 C CNN
F 3 "~" H 3400 1900 50  0001 C CNN
	1    3400 1900
	1    0    0    -1  
$EndComp
Wire Wire Line
	3400 2050 3400 2100
Wire Wire Line
	3400 2100 3650 2100
Wire Wire Line
	3400 1750 3400 1700
Wire Wire Line
	3400 1700 3950 1700
Connection ~ 3950 1700
Wire Wire Line
	2900 2200 2900 2100
Connection ~ 3400 2100
$Comp
L power:GND #PWR?
U 1 1 5CBDC2EC
P 3200 2650
F 0 "#PWR?" H 3200 2400 50  0001 C CNN
F 1 "GND" V 3205 2522 50  0000 R CNN
F 2 "" H 3200 2650 50  0001 C CNN
F 3 "" H 3200 2650 50  0001 C CNN
	1    3200 2650
	0    -1   -1   0   
$EndComp
Wire Wire Line
	2900 2600 2900 2650
Wire Wire Line
	2900 2650 3200 2650
$Comp
L Device:R R?
U 1 1 5CBDC7B4
P 3500 3000
F 0 "R?" H 3570 3046 50  0000 L CNN
F 1 "10K" H 3570 2955 50  0000 L CNN
F 2 "" V 3430 3000 50  0001 C CNN
F 3 "~" H 3500 3000 50  0001 C CNN
	1    3500 3000
	1    0    0    -1  
$EndComp
Wire Wire Line
	3500 2850 3650 2850
Wire Wire Line
	3500 3150 3950 3150
Connection ~ 3950 3150
Wire Wire Line
	2900 2100 3400 2100
$Comp
L Device:R R?
U 1 1 5CBDD72A
P 3100 2850
F 0 "R?" V 2893 2850 50  0000 C CNN
F 1 "500R" V 2984 2850 50  0000 C CNN
F 2 "" V 3030 2850 50  0001 C CNN
F 3 "~" H 3100 2850 50  0001 C CNN
	1    3100 2850
	0    1    1    0   
$EndComp
Wire Wire Line
	3250 2850 3500 2850
Connection ~ 3500 2850
$Comp
L Transistor_BJT:2N3904 Q?
U 1 1 5CBDDF28
P 6750 2400
F 0 "Q?" H 6941 2446 50  0000 L CNN
F 1 "2N3904" H 6941 2355 50  0000 L CNN
F 2 "Package_TO_SOT_THT:TO-92_Inline" H 6950 2325 50  0001 L CIN
F 3 "https://www.fairchildsemi.com/datasheets/2N/2N3904.pdf" H 6750 2400 50  0001 L CNN
	1    6750 2400
	-1   0    0    -1  
$EndComp
$Comp
L Device:R R?
U 1 1 5CBDDF2F
P 6150 1900
F 0 "R?" H 6220 1946 50  0000 L CNN
F 1 "10K" H 6220 1855 50  0000 L CNN
F 2 "" V 6080 1900 50  0001 C CNN
F 3 "~" H 6150 1900 50  0001 C CNN
	1    6150 1900
	-1   0    0    -1  
$EndComp
Wire Wire Line
	6150 2050 6150 2100
Wire Wire Line
	6150 2100 5900 2100
Wire Wire Line
	6150 1750 6150 1700
Wire Wire Line
	6150 1700 5600 1700
Wire Wire Line
	6650 2200 6650 2100
Connection ~ 6150 2100
$Comp
L power:GND #PWR?
U 1 1 5CBDDF3C
P 6350 2650
F 0 "#PWR?" H 6350 2400 50  0001 C CNN
F 1 "GND" V 6355 2522 50  0000 R CNN
F 2 "" H 6350 2650 50  0001 C CNN
F 3 "" H 6350 2650 50  0001 C CNN
	1    6350 2650
	0    1    -1   0   
$EndComp
Wire Wire Line
	6650 2600 6650 2650
Wire Wire Line
	6650 2650 6350 2650
$Comp
L Device:R R?
U 1 1 5CBDDF44
P 6050 3000
F 0 "R?" H 6120 3046 50  0000 L CNN
F 1 "10K" H 6120 2955 50  0000 L CNN
F 2 "" V 5980 3000 50  0001 C CNN
F 3 "~" H 6050 3000 50  0001 C CNN
	1    6050 3000
	-1   0    0    -1  
$EndComp
Wire Wire Line
	6050 2850 5900 2850
Wire Wire Line
	6050 3150 5600 3150
Wire Wire Line
	6650 2100 6150 2100
$Comp
L Device:R R?
U 1 1 5CBDDF4E
P 6450 2850
F 0 "R?" V 6243 2850 50  0000 C CNN
F 1 "500R" V 6334 2850 50  0000 C CNN
F 2 "" V 6380 2850 50  0001 C CNN
F 3 "~" H 6450 2850 50  0001 C CNN
	1    6450 2850
	0    -1   1    0   
$EndComp
Wire Wire Line
	6300 2850 6050 2850
Connection ~ 6050 2850
Connection ~ 5600 1700
Connection ~ 5600 3150
Text Label 2300 2400 2    50   ~ 0
H_BRIDGE_A_HIGH
Text Label 2950 2850 2    50   ~ 0
H_BRIDGE_A_LOW
Text Label 6600 2850 0    50   ~ 0
H_BRIDGE_B_LOW
Text Label 7250 2400 0    50   ~ 0
H_BRIDGE_B_HIGH
Text Label 4700 2500 1    50   ~ 0
MOTOR_A
Text Label 4950 2500 1    50   ~ 0
MOTOR_B
$Comp
L Device:R R?
U 1 1 5CBE00A1
P 2450 2400
F 0 "R?" V 2243 2400 50  0000 C CNN
F 1 "1K" V 2334 2400 50  0000 C CNN
F 2 "" V 2380 2400 50  0001 C CNN
F 3 "~" H 2450 2400 50  0001 C CNN
	1    2450 2400
	0    1    1    0   
$EndComp
$Comp
L Device:R R?
U 1 1 5CBE0185
P 7100 2400
F 0 "R?" V 6893 2400 50  0000 C CNN
F 1 "1K" V 6984 2400 50  0000 C CNN
F 2 "" V 7030 2400 50  0001 C CNN
F 3 "~" H 7100 2400 50  0001 C CNN
	1    7100 2400
	0    1    1    0   
$EndComp
$Comp
L power:GND #PWR?
U 1 1 5CBE0334
P 4550 3250
F 0 "#PWR?" H 4550 3000 50  0001 C CNN
F 1 "GND" H 4555 3077 50  0000 C CNN
F 2 "" H 4550 3250 50  0001 C CNN
F 3 "" H 4550 3250 50  0001 C CNN
	1    4550 3250
	1    0    0    -1  
$EndComp
Wire Wire Line
	4550 3250 4550 3150
Connection ~ 4550 3150
Wire Wire Line
	4550 3150 3950 3150
Wire Wire Line
	4550 3150 5600 3150
$EndSCHEMATC
